Chapter 4 Data mangling with package dplyr | Data Analysis and Visualization using R (2)
…
4.2 The chaining operator %>%

In any workflow, it happens all the time that you apply some function to a dataframe, store the result in a new variable (or overwrite the first) and apply a second function to this dataframe. And so on.
There are two undesirable results with this. The first is cluttered code: many variables; how are you going to name them? Just have a look at the previous chapter and you’ll understand. The second -and much worse if you are working with big dataframes- is cluttering of the environment and memory footprint.

This is where the chaining operator comes in. It helps you create clean workflows where intermediate results are only stored when opportune.

It comes down to this simple notion: x %>% f(y)) is equivalent to f(x, y) where f is any function.

Here is the good old dose-response example again, converted to a tibble.

dose_response_long

## # A tibble: 52 x 4
##    patient sex   Dose     Response
##    <chr>   <fct> <chr>       <int>
##  1 001     f     dose10mg       12
##  2 002     f     dose10mg       11
##  3 003     m     dose10mg       54
##  4 004     m     dose10mg       71
##  5 005     f     dose10mg       19
##  6 006     f     dose10mg       22
##  7 007     f     dose10mg       23
##  8 008     m     dose10mg       68
##  9 009     f     dose10mg       30
## 10 010     m     dose10mg       83
## # … with 42 more rows
…
4.3.4 Selecting variables: select()

This function is similar to the select argument of the subset() function.

Choose variables from a table. Closely related to rename() discussed below; select() keeps only the listed variables and rename() keeps all variables.

When you use the key = value format this will result in a rename of the variable.

select(dose_response_long, patient, gender = sex)

## # A tibble: 52 x 2
##    patient gender
##    <chr>   <fct> 
##  1 001     f     
##  2 002     f     
##  3 003     m     
##  4 004     m     
##  5 005     f     
##  6 006     f     
##  7 007     f     
##  8 008     m     
##  9 009     f     
## 10 010     m     
## # … with 42 more rows

Use the minus sign when you want to select everything but a variable:

select(dose_response_long, -patient, -sex)

## # A tibble: 52 x 2
##    Dose     Response
##    <chr>       <int>
##  1 dose10mg       12
##  2 dose10mg       11
##  3 dose10mg       54
##  4 dose10mg       71
##  5 dose10mg       19
##  6 dose10mg       22
##  7 dose10mg       23
##  8 dose10mg       68
##  9 dose10mg       30
## 10 dose10mg       83
## # … with 42 more rows

## same as 
#select(dose_response_long, -c(patient, sex))

You can use the colon operator to indicate a range of variables:

select(dose_response_long, patient:Dose)

## # A tibble: 52 x 3
##    patient sex   Dose    
##    <chr>   <fct> <chr>   
##  1 001     f     dose10mg
##  2 002     f     dose10mg
##  3 003     m     dose10mg
##  4 004     m     dose10mg
##  5 005     f     dose10mg
##  6 006     f     dose10mg
##  7 007     f     dose10mg
##  8 008     m     dose10mg
##  9 009     f     dose10mg
## 10 010     m     dose10mg
## # … with 42 more rows
…
contains(): Contains a literal string.

matches(): Matches a regular expression.

num_range(): Matches a numerical range like x01, x02, x03.

one_of(): Matches variable names in a character vector.

everything(): Matches all variables.

last_col(): Select last variable, possibly with an offset.

select(dose_response_long, contains("o"))

## # A tibble: 52 x 2
##    Dose     Response
##    <chr>       <int>
##  1 dose10mg       12
##  2 dose10mg       11
##  3 dose10mg       54
##  4 dose10mg       71
##  5 dose10mg       19
##  6 dose10mg       22
##  7 dose10mg       23
##  8 dose10mg       68
##  9 dose10mg       30
## 10 dose10mg       83
## # … with 42 more rows

4.3.5 Renaming variables: rename()

Rename variables from a table.

dose_response_long %>% rename(Patient = patient, Gender = sex)

## # A tibble: 52 x 4
##    Patient Gender Dose     Response
##    <chr>   <fct>  <chr>       <int>
##  1 001     f      dose10mg       12
##  2 002     f      dose10mg       11
##  3 003     m      dose10mg       54
##  4 004     m      dose10mg       71
##  5 005     f      dose10mg       19
##  6 006     f      dose10mg       22
##  7 007     f      dose10mg       23
##  8 008     m      dose10mg       68
##  9 009     f      dose10mg       30
## 10 010     m      dose10mg       83
## # … with 42 more rows
…
Suppose we want to know the daily weight gain of these chicks (as a challenge, you could try to do this in base R).

Using lag() and mutate() this is a breeze (or so it seems):

(chicks <- chicks %>% mutate(weight_gain = weight - lag(weight)))

## # A tibble: 578 x 5
##    weight  Time Chick Diet  weight_gain
##     <dbl> <dbl> <ord> <fct>       <dbl>
##  1     42     0 1     1              NA
##  2     51     2 1     1               9
##  3     59     4 1     1               8
##  4     64     6 1     1               5
##  5     76     8 1     1              12
##  6     93    10 1     1              17
##  7    106    12 1     1              13
##  8    125    14 1     1              19
##  9    149    16 1     1              24
## 10    171    18 1     1              22
## # … with 568 more rows
…
When you want the counts sorted, use the sort = TRUE argument to count, e.g.

mtcars %>% count(cyl, sort = TRUE)

If you want such a count as a column in your dataset, use add_tally() or add_count()

dose_response_long %>%
    group_by(sex) %>%
    add_tally()

## # A tibble: 52 x 5
## # Groups:   sex [2]
##    patient sex   Dose     Response     n
##    <chr>   <fct> <chr>       <int> <int>
##  1 001     f     dose10mg       12    26
##  2 002     f     dose10mg       11    26
##  3 003     m     dose10mg       54    26
##  4 004     m     dose10mg       71    26
##  5 005     f     dose10mg       19    26
##  6 006     f     dose10mg       22    26
##  7 007     f     dose10mg       23    26
##  8 008     m     dose10mg       68    26
##  9 009     f     dose10mg       30    26
## 10 010     m     dose10mg       83    26
## # … with 42 more rows
…
