Chapter 7 Exploratory Data Analysis | Data Analysis and Visualization using R (2)
…
They are advertised as a boolean, but are they?

This kind of inspection should make you aware of possible problems that are going to arise later on. Booleans are very different from numbers after all. What is even more dangerous is that they can be treated interchangeably - in R you can treat a logical as an integer and an intereger in a boolean context.

This kind of discrepancy is the first thing you should address after loading your data. We’ll get back to this shortly.

I will now first change the column names to something shorter, using the codebook. Also, the data will be converted into a tibble because this is really a nicer data structure:

names(data) <- codebook[,1]
data <- as_tibble(data)
data

## # A tibble: 858 x 36
##      age num.partners first.sex num.preg smoker smoke.years
##    <int>        <dbl>     <dbl>    <dbl>  <dbl>       <dbl>
##  1    18            4        15        1      0        0   
##  2    15            1        14        1      0        0   
##  3    34            1        NA        1      0        0   
##  4    52            5        16        4      1       37   
##  5    46            3        21        4      0        0   
##  6    42            3        23        2      0        0   
##  7    51            3        17        6      1       34   
##  8    26            1        26        3      0        0   
##  9    45            1        20        5      0        0   
## 10    44            3        15       NA      1        1.27
## # … with 848 more rows, and 30 more variables: smokes.packs.year <dbl>,
## #   horm.contracept.ever <dbl>, horm.contracept.years <dbl>,
## #   IUD.ever <dbl>, IUD.years <dbl>, STD.ever <dbl>, STDs.number <dbl>,
## #   STD_condylomatosis <dbl>, STD_cervical.cond <dbl>,
## #   STD_vaginal.cond <dbl>, STD_vulvo.per.cond <dbl>, STD_syph <dbl>,
## #   STD_pid <dbl>, STD_gen.herpes <dbl>, STD_moll.cont <dbl>,
## #   STD_aids <dbl>, STD_hiv <dbl>, STD_hepB <dbl>, STD_HPV <dbl>,
## #   STD.num.diagn <int>, STD.time.since.first <dbl>,
## #   STD.time.since.last <dbl>, Dx.cancer <int>, Dx.cin <int>,
…
7.2.2.2 Getting it right in the end

Here, for demonstration purposes I use a wrapper function read.csv() instead of read.table(). The tidyverse has data reading facilities as well of course, but these were not dealt with in this course.

data <- read.csv(datafile, na.strings = "?")
names(data) <- codebook[,1]
for(i in 1:nrow(codebook)) {
  if(codebook[i, 2] == "logical"){
    data[,i] <- as.logical(data[,i])
  }
}
(data <- as_tibble(data))

## # A tibble: 858 x 36
##      age num.partners first.sex num.preg smoker smoke.years
##    <int>        <dbl>     <dbl>    <dbl> <lgl>        <dbl>
##  1    18            4        15        1 FALSE         0   
##  2    15            1        14        1 FALSE         0   
##  3    34            1        NA        1 FALSE         0   
##  4    52            5        16        4 TRUE         37   
##  5    46            3        21        4 FALSE         0   
##  6    42            3        23        2 FALSE         0   
##  7    51            3        17        6 TRUE         34   
##  8    26            1        26        3 FALSE         0   
##  9    45            1        20        5 FALSE         0   
## 10    44            3        15       NA TRUE          1.27
## # … with 848 more rows, and 30 more variables: smokes.packs.year <dbl>,
## #   horm.contracept.ever <lgl>, horm.contracept.years <dbl>,
## #   IUD.ever <lgl>, IUD.years <dbl>, STD.ever <lgl>, STDs.number <dbl>,
## #   STD_condylomatosis <lgl>, STD_cervical.cond <lgl>,
## #   STD_vaginal.cond <lgl>, STD_vulvo.per.cond <lgl>, STD_syph <lgl>,
## #   STD_pid <lgl>, STD_gen.herpes <lgl>, STD_moll.cont <lgl>,
## #   STD_aids <lgl>, STD_hiv <lgl>, STD_hepB <lgl>, STD_HPV <lgl>,
## #   STD.num.diagn <int>, STD.time.since.first <dbl>,
## #   STD.time.since.last <dbl>, Dx.cancer <lgl>, Dx.cin <lgl>,
…
Now the same procedure for the cervical cancer dataset, with a selection of numverical vaiables.

selection <- c("num.partners", "first.sex", "num.preg", "horm.contracept.years", "IUD.years", "STDs.number", "target.biopsy")
tmp <- clean_data %>% select(selection) %>% drop_na()
tmp

## # A tibble: 676 x 7
##    num.partners first.sex num.preg horm.contracept… IUD.years STDs.number
##           <dbl>     <dbl>    <dbl>            <dbl>     <dbl>       <dbl>
##  1            4        15        1                0         0           0
##  2            1        14        1                0         0           0
##  3            5        16        4                3         0           0
##  4            3        21        4               15         0           0
##  5            3        23        2                0         0           0
##  6            3        17        6                0         7           0
##  7            1        26        3                2         7           0
##  8            1        20        5                0         0           0
##  9            3        26        4                2         0           0
## 10            1        17        3                8         0           0
## # … with 666 more rows, and 1 more variable: target.biopsy <lgl>
…
