Chapter 9 Exercise Solutions | Data Analysis and Visualization using R (2)
…
## combine with proportions
skeleton_prop_and_totals <- merge(skeleton_proportions, skeleton_totals, by = "Midpoint")

## reshuffling is required for pivot_longer to work as expected!!!
skeleton_prop_and_totals <- skeleton_prop_and_totals[, c(1:4, 6, 5, 7)]

## re-create the long form with pivot_longer
(skeleton_prop_totals_long <- pivot_longer(
    data = skeleton_prop_and_totals,
    cols = matches("_"),
    names_pattern = "(genera|specimen)_",
    values_to = c("proportion", "totals"),
    names_to = "level"))

## # A tibble: 42 x 6
##    Midpoint Epoch        Stage                     level  proportion totals
##       <dbl> <fct>        <fct>                     <chr>       <dbl>  <int>
##  1     185. Jurassic (E… Pliensbachian (u)         genera       44.4      9
##  2     185. Jurassic (E… Pliensbachian (u)         speci…       67.9     28
##  3     189. Jurassic (E… Sinemurian (u) - Pliensb… genera       42.1     19
##  4     189. Jurassic (E… Sinemurian (u) - Pliensb… speci…       35.3     85
##  5     191. Jurassic (E… Sinemurian (u) - Pliensb… genera       77.8     30
##  6     191. Jurassic (E… Sinemurian (u) - Pliensb… speci…       72.3    424
##  7     195. Jurassic (E… Sinemurian (l,u)          genera       33.3     21
##  8     195. Jurassic (E… Sinemurian (l,u)          speci…       21.4     42
##  9     200. Jurassic (E… Hettangian                genera       60.7     13
## 10     200. Jurassic (E… Hettangian                speci…       73.6    152
## # … with 32 more rows
…
